{
    "Head": [
        "wild_head_1",
        "wild_head_2",
        "wild_head_3",
        "wild_dealmaker_head",
        "head_boss_killa",
        "bear_head",
        "bear_head_1",
        "usec_head_1"
    ],
    "Body": [
        "wild_body",
        "wild_body_1",
        "wild_body_2",
        "wild_body_3",
        "wild_dealmaker_body",
        "wild_security_body_1",
        "wild_security_body_2",
        "top_boss_killa",
        "top_wild_scavelite",
        "bear_body",
        "usec_body"
    ],
    "Feet": [
        "wild_feet",
        "wild_feet_1",
        "wild_feet_2",
        "wild_dealmaker_feet",
        "wild_security_feet_1",
        "pant_boss_killa",
        "pants_wild_scavelite",
        "bear_feet",
        "usec_feet"
    ],
    "pmcBotVoices": [
        "Bear_1",
        "Bear_2",
        "Usec_1",
        "Usec_2",
        "Usec_3"
    ],
    "UsecVoices": [
        "Usec_1",
        "Usec_2",
        "Usec_3"
    ],
    "BearVoices": [
        "Bear_1",
        "Bear_2"
    ],
    "filter_marksman": [
        "587e02ff24597743df3deaeb",
        "5c501a4d2e221602b412b540",
        "574d967124597745970e7c94",
        "5c46fbd72e2216398b5a8c9c",
        "5a367e5dc4a282000e49738f",
        "5aafa857e5b5b00018480968",
        "5bfd297f0db834001a669119",
        "5ae08f0a5acfc408fb1398a1",
        "55801eed4bdc2d89578b4588",
        "588892092459774ac91d4b11",
        "5bfea6e90db834001b7347f3"
    ],
    "filter_mosin": [
        "5ae08f0a5acfc408fb1398a1",
        "5bfd297f0db834001a669119"
    ],
    "Grenades": [
        "5710c24ad2720bc3458b45a3",
        "58d3db5386f77426186285a0",
        "5448be9a4bdc2dfd2f8b456a",
        "5a0c27731526d80618476ac4"
    ],
	"Backpack": {
		"0": [
			"5c0e774286f77468413cc5b2",
			"544a5cde4bdc2d39388b456b",
			"56e335e4d2720b6c058b456d",
			"56e33680d2720be2748b4576",
			"5ab8f04f86f774585f4237d8",
			"56e33634d2720bd8058b456b",
			"59e763f286f7742ee57895da"
		],
		"1": [
			"545cdae64bdc2d39198b4568",
			"5b44c6ae86f7742d1627baea",
			"5ca20d5986f774331e7c9602",
			"5c0e805e86f774683f3dd637",
			"5ab8ebf186f7742d8b372e80",
			"5ab8ee7786f7742d8f33f0b9"
		]
	},
	"Rig": {
		"0": [
			"59e7643b86f7742cbf2c109a",
			"544a5caa4bdc2d1a388b4568",
			"544a5caa4bdc2d1a388b4568",
			"572b7adb24597762ae139821",
			"572b7adb24597762ae139821",
			"572b7adb24597762ae139821",
			"5648a69d4bdc2ded0b8b457b"
		],
		"1": [
			"5c0e3eb886f7742015526062",
			"5ab8dab586f77441cd04f2a2",
			"5b44cad286f77402a54ae7e5",
			"5c0e446786f7742013381639",
			"5c0e6a1586f77404597b4965",
			"5929a2a086f7744f4b234d43",
			"5c0e746986f7741453628fe5",
			"5c0e722886f7740458316a57",
			"592c2d1a86f7746dbe2af32a",
			"5c0e9f2c86f77432297fe0a3",
			"5b44c8ea86f7742d1627baf1",
			"5ab8dced86f774646209ec87",
			"5ca20abf86f77418567a43f2"
		]
	},
	"Armor": {
		"0": [
			"5648a7494bdc2d9d488b4583",
			"59e7635f86f7742cbf2c1095",
			"5ab8e4ed86f7742d8e50c7fa",
			"5b44d22286f774172b0c9de8",
			"5c0e625a86f7742d77340f62",
			"5c0e655586f774045612eeb2",
			"5ab8e79e86f7742d8b372e78"
		],
		"1": [
			"5c0e5bab86f77461f55ed1f3",
			"5b44cf1486f77431723e3d05",
			"5b44d0de86f774503d30cba8",
			"545cdb794bdc2d3a198b456a",
			"5c0e541586f7747fa54205c9",
			"5c0e57ba86f7747fa141986d",
			"5c0e5edb86f77461f55ed1f7",
			"5c0e51be86f774598e797894",
			"5c0e53c886f7747fa54205c7",
			"5b44cd8b86f774503d30cba2",
			"5ca2151486f774244a3b8d30",
			"5ca21c6986f77479963115a7"
		]
	},
    "Facecovers": [
        "59e7715586f7742ee5789605", Respirator
        "5ab8f4ff86f77431c60d91ba", Ghost
        "5ab8f85d86f7745cd93a1cf5", Shemagh
        "5b432f3d5acfc4704b4a1dfb", Momex
        "5bd0716d86f774171822ef4b", Misha Mayorov's mask
        "5bd06f5d86f77427101ad47c", Slender mask
        "5b432b6c5acfc4001a599bf0", Deadly skull mask
        "5ab8f39486f7745cd93a1cca", Cold Fear Infrared balaclava
        "5b432c305acfc40019478128", GP-5 gasmask
        "5c1a1e3f2e221602b66cc4c2", Fake white beard
        "572b7fa524597762b747ce82", Lower half-mask
        "572b7f1624597762ae139822", Balaclava
        "5b4326435acfc433000ed01d" Neoprene mask
    ],
    "Headwear": {
		"0": ["59e7708286f7742cbd762753","572b7d8524597762b472f9d1","5b43271c5acfc432ff4dce65","59e770f986f7742cbe3164ef","5aa2b87de5b5b00016327c25","5aa2b8d7e5b5b00014028f4a","572b7fa124597762b472f9d2","5b4327aa5acfc400175496e0","5aa2b9ede5b5b000137b758b","5aa2a7e8e5b5b00016327c16","5aa2ba19e5b5b00014028f4e","5aa7d03ae5b5b00016327db5","59e7711e86f7746cae05fbe1","5a43943586f77416ad2f06e2","5aa2b89be5b5b0001569311f","5b4329075acfc400153b78ff","5b40e5e25acfc4001a599bea","5a43957686f7742a2c2f11b0","5b40e61f5acfc4001a599bec"],
		"1": ["5b4329f05acfc47a86086aa1","5aa7d193e5b5b000171d063f"],
		"2": ["5c08f87c0db8340019124324","5645bc214bdc2d363b8b4571"],
		"3": ["5aa2ba46e5b5b000137b758d"],
		"4": ["5c17a7ed2e2216152142459c","5a16bb52fcdbcb001a3b00dc"],
		"5": ["59ef13ca86f77445fd0e2483","5ab8f20c86f7745cdb629fb2","5bd073c986f7747f627e796c"]
	},
    "Eyewear": [
        "5b432be65acfc433000ed01f",
        "5aa2b986e5b5b00014028f4c",
        "5aa2b923e5b5b000137b7589",
        "59e770b986f7742cbd762754",
        "5aa2b9aee5b5b00015693121",
        "5c1a1cc52e221602b3136e3d",
        "5c0d32fcd174af02a1659c75",
        "557ff21e4bdc2d89578b4586"
    ],
    "Knife": {
		"0": ["57e26fc7245977162a14b800","57e26ea924597715ca604a09","5c0116620db834001808a647","5bead2e00db834001c062938"],
		"1": ["54491bb74bdc2d09088b4567","5c07df7f0db834001b73588a","5bffdc370db834001d23eca8"],
		"2": ["57cd379a24597778e7682ecf","5c010e350db83400232feec7","5bffe7930db834001b734a39"],
		"3": ["5c012ffc0db834001d23f03f","5bffdd7e0db834001b734a1a"],
		"4": ["5bc9c1e2d4351e00367fbcf0","5c0126f40db834002a125382"],
	},
    "Pistol": {
		"0": ["5448bd6b4bdc2dfc2f8b4569","579204f224597773d619e051"],
		"1": ["56e0598dd2720bb5668b45a6","571a12c42459771f627b58a0"],
		"2": ["56d59856d2720bd8418b456a","576a581d2459771e7b1bc4f1"],
		"3": ["5a7ae0c351dfba0017554310"],
		"4": ["5abccb7dd8ce87001773e277","5a17f98cfcdbcb0980087290","5b1fa9b25acfc40018633c01"],
		"5": ["59f98b4986f7746f546d2cef","5b3b713c5acfc4330140bd8d"]
	},
    "Medicaments": {
		"0": ["5755356824597772cb798962"],
		"1": ["544fb37f4bdc2dee738b4567","5af0454c86f7746bf20992e8"],
		"2": ["5751a25924597722c463c472","590c678286f77426c9660122","590c695186f7741e566b64a2","5af0548586f7743a532b7e99"],
		"3": ["544fb3364bdc2d34748b456a","5c0e534186f7747fa1419867","544fb3f34bdc2d03748b456a","544fb25a4bdc2dfb738b4567","5c0e531d86f7747fa23f4d42","5c0e530286f7747fa1419862","5755383e24597772cb798966","5c0e531286f7747fa54205c2","5c0e533786f7747fa23f4d47","5c10c8fd86f7743d7d706df3"],
		"4": ["5751a89d24597722aa0e8db0"]
	},
    "item_backpack_exceptions": [
        "5b5f701386f774093f2ecf0f",
        "5b5f6f6c86f774093f2ecf0b",
        "5b47574386f77428ca22b32f",
        "5b5f704686f77447ec5d76d7",
        "5b5f6f3c86f774094242ef87",
        "5b47574386f77428ca22b330",
        "5b5f6fd286f774093f2ecf0d",
        "5b5f6f8786f77447ed563642",
        "5b47574386f77428ca22b331",
        "5b5f74cc86f77447ec5d770a",
        "5b5f71c186f77409407a7ec0",
        "5b5f71de86f774093f2ecf13",
        "5b5f73ab86f774094242f195",
        "5b5f73c486f77447ec5d7704",
        "5b5f737886f774093e6cb4fb",
        "5b5f724c86f774093f2ecf15",
        "5b5f72f786f77447ec5d7702",
        "5b5f731a86f774093e6cb4f9",
        "5b5f740a86f77447ec5d7706",
        "5b5f742686f774093e6cb4ff",
        "5b5f744786f774094242f197",
        "5b5f746686f77447ec5d7708",
        "5b5f748386f774093e6cb501",
        "5b5f749986f774094242f199",
        "5b5f751486f77447ec5d770c",
        "5b5f754a86f774094242f19b",
        "5b5f755f86f77447ec5d770e",
        "5b5f757486f774093e6cb507",
        "5b5f75c686f774094242f19f",
        "5b5f760586f774093e6cb509",
        "5b5f75e486f77447ec5d7712",
        "5b5f761f86f774094242f1a1",
        "5b5f764186f77447ec5d7714",
        "5b5f78e986f77447ed5636b1",
        "5b5f78fc86f77409407a7f90",
        "5b5f798886f77447ed5636b5",
        "5b5f79a486f77409407a7f94",
        "5b5f791486f774093f2ed3be",
        "5b5f7a0886f77409407a7f96",
        "5b5f792486f77447ed5636b3",
        "5b5f794b86f77409407a7f92",
        "5b5f796a86f774093f2ed3c0",
        "5b5f7a2386f774093f2ed3c4",
        "5b47574386f77428ca22b33c",
        "5b47574386f77428ca22b33b",
        "5b619f1a86f77450a702a6f3"
    ]
}